<?xml version="1.0" encoding="UTF-8"?>
<svg xmlns="http://www.w3.org/2000/svg" xmlns:xlink="http://www.w3.org/1999/xlink" width="18pt" height="11pt" viewBox="0 0 18 11" version="1.1">
<g id="surface1">
<path style="stroke:none;fill-rule:nonzero;fill:#fff;fill-opacity:1;" d="M 9 11 C 8.664062 11 8.339844 10.855469 8.105469 10.601562 L 0.347656 2.191406 C -0.0898438 1.671875 -0.0585938 0.882812 0.417969 0.402344 C 0.898438 -0.0742188 1.652344 -0.078125 2.136719 0.398438 L 9 7.839844 L 15.863281 0.398438 C 16.347656 -0.078125 17.101562 -0.0742188 17.582031 0.402344 C 18.058594 0.882812 18.089844 1.671875 17.652344 2.191406 L 9.894531 10.601562 C 9.660156 10.855469 9.335938 11 9 11 Z M 9 11 "/>
</g>
</svg>
