<?xml version="1.0" encoding="UTF-8"?>
<svg xmlns="http://www.w3.org/2000/svg" xmlns:xlink="http://www.w3.org/1999/xlink" width="56pt" height="56pt" viewBox="0 0 56 56" version="1.1">
<g id="surface1">
<path style=" stroke:none;fill-rule:nonzero;fill:#ec8625;fill-opacity:1;" d="M 32.511719 3.527344 L 33.070312 3.527344 C 35.089844 3.527344 36.722656 5.160156 36.722656 7.175781 L 36.722656 8.75 L 30.078125 8.75 L 30.078125 5.960938 C 30.078125 4.617188 31.167969 3.527344 32.511719 3.527344 Z M 32.511719 3.527344 "/>
<path style=" stroke:none;fill-rule:nonzero;fill:#ec8625;fill-opacity:1;" d="M 39.921875 15.3125 C 39.320312 15.3125 38.828125 15.800781 38.828125 16.40625 C 38.828125 17.011719 39.320312 17.5 39.921875 17.5 C 40.527344 17.5 41.015625 17.011719 41.015625 16.40625 C 41.015625 15.800781 40.527344 15.3125 39.921875 15.3125 Z M 39.921875 15.3125 "/>
<path style=" stroke:none;fill-rule:nonzero;fill:#ec8625;fill-opacity:1;" d="M 28.984375 15.3125 C 28.382812 15.3125 27.890625 15.800781 27.890625 16.40625 C 27.890625 17.011719 28.382812 17.5 28.984375 17.5 C 29.589844 17.5 30.078125 17.011719 30.078125 16.40625 C 30.078125 15.800781 29.589844 15.3125 28.984375 15.3125 Z M 28.984375 15.3125 "/>
<path style=" stroke:none;fill-rule:nonzero;fill:#3e2c1f;fill-opacity:1;" d="M 55.308594 26.328125 C 54.476562 25.03125 53.015625 24.28125 51.476562 24.363281 C 49.9375 24.445312 48.5625 25.34375 47.871094 26.722656 C 47.773438 26.917969 47.675781 27.101562 47.578125 27.285156 L 47.578125 12.03125 C 47.578125 10.21875 46.109375 8.75 44.296875 8.75 L 41.015625 8.75 L 41.015625 6.5625 C 41.015625 2.9375 38.078125 0 34.453125 0 C 30.832031 0 27.890625 2.9375 27.890625 6.5625 L 27.890625 8.75 L 24.609375 8.75 C 22.800781 8.75 21.328125 10.21875 21.328125 12.03125 L 21.328125 27.609375 C 20.972656 27.578125 20.601562 27.5625 20.21875 27.5625 C 16.011719 27.5625 12.417969 30.851562 10.648438 32.8125 C 10.5625 32.910156 9.1875 34.441406 8.316406 35.925781 L 8.054688 35.667969 C 7.628906 35.238281 6.9375 35.238281 6.507812 35.667969 L 0.320312 41.851562 C 0.117188 42.058594 0 42.335938 0 42.625 C 0 42.917969 0.117188 43.195312 0.320312 43.398438 L 12.632812 55.679688 C 13.058594 56.105469 13.746094 56.105469 14.175781 55.679688 L 20.363281 49.519531 C 20.566406 49.316406 20.683594 49.035156 20.683594 48.746094 C 20.683594 48.457031 20.566406 48.175781 20.363281 47.972656 L 19.359375 46.972656 C 20.109375 45.910156 22.019531 45.0625 23.371094 45.0625 L 38.136719 45.0625 C 40.011719 45.070312 41.851562 44.539062 43.433594 43.53125 C 47.425781 40.96875 53.039062 36.792969 55.691406 30.1875 C 56.210938 28.917969 56.066406 27.472656 55.308594 26.328125 Z M 30.078125 6.5625 C 30.078125 4.144531 32.039062 2.1875 34.453125 2.1875 C 36.871094 2.1875 38.828125 4.144531 38.828125 6.5625 L 38.828125 8.75 L 30.078125 8.75 Z M 23.515625 12.03125 C 23.515625 11.425781 24.007812 10.9375 24.609375 10.9375 L 27.890625 10.9375 L 27.890625 12.03125 C 27.890625 12.636719 28.382812 13.125 28.984375 13.125 C 29.589844 13.125 30.078125 12.636719 30.078125 12.03125 L 30.078125 10.9375 L 38.828125 10.9375 L 38.828125 12.03125 C 38.828125 12.636719 39.320312 13.125 39.921875 13.125 C 40.527344 13.125 41.015625 12.636719 41.015625 12.03125 L 41.015625 10.9375 L 44.296875 10.9375 C 44.902344 10.9375 45.390625 11.425781 45.390625 12.03125 L 45.390625 30.296875 C 44.679688 30.980469 43.835938 31.566406 42.726562 32.140625 C 41.976562 30.679688 40.472656 29.753906 38.828125 29.75 L 27.875 29.75 C 27.175781 29.75 26.613281 29.453125 25.832031 29.042969 C 25.09375 28.628906 24.320312 28.292969 23.515625 28.03125 Z M 13.40625 53.363281 L 2.644531 42.625 L 7.28125 37.984375 L 18.042969 48.742188 Z M 53.664062 29.371094 C 51.242188 35.398438 45.992188 39.292969 42.253906 41.695312 C 41.023438 42.476562 39.59375 42.886719 38.140625 42.875 L 23.375 42.875 C 21.464844 42.875 19.097656 43.867188 17.808594 45.414062 L 9.933594 37.539062 C 10.800781 35.757812 15.335938 29.753906 20.226562 29.753906 C 20.890625 29.75 21.550781 29.8125 22.203125 29.945312 C 23.296875 30.179688 24.0625 30.585938 24.8125 30.976562 C 25.710938 31.449219 26.636719 31.941406 27.875 31.941406 L 38.828125 31.941406 C 40.039062 31.941406 41.015625 32.917969 41.015625 34.128906 C 41.015625 35.335938 40.039062 36.316406 38.828125 36.316406 L 27.875 36.316406 C 27.273438 36.316406 26.78125 36.804688 26.78125 37.410156 C 26.78125 38.011719 27.273438 38.503906 27.875 38.503906 L 38.828125 38.503906 C 41.160156 38.503906 43.085938 36.679688 43.203125 34.347656 C 44.988281 33.484375 46.238281 32.605469 47.304688 31.480469 C 48.230469 30.496094 49.035156 29.300781 49.832031 27.699219 C 50.171875 27.027344 50.847656 26.585938 51.601562 26.546875 C 52.355469 26.507812 53.074219 26.878906 53.480469 27.515625 C 53.839844 28.066406 53.910156 28.757812 53.664062 29.371094 Z M 53.664062 29.371094 "/>
<path style=" stroke:none;fill-rule:nonzero;fill:#ec8625;fill-opacity:1;" d="M 13.46875 47.265625 L 11.921875 45.71875 C 11.648438 45.433594 11.242188 45.320312 10.859375 45.421875 C 10.476562 45.519531 10.179688 45.820312 10.078125 46.203125 C 9.980469 46.585938 10.09375 46.992188 10.375 47.265625 L 11.921875 48.8125 C 12.351562 49.226562 13.035156 49.21875 13.457031 48.796875 C 13.878906 48.375 13.882812 47.695312 13.46875 47.265625 Z M 13.46875 47.265625 "/>
<path style=" stroke:none;fill-rule:nonzero;fill:#ec8625;fill-opacity:1;" d="M 9.078125 40.503906 L 4.804688 44.78125 L 13.40625 53.363281 L 18.042969 48.746094 L 9.476562 40.179688 Z M 9.078125 40.503906 "/>
</g>
</svg>
