<?xml version="1.0" encoding="UTF-8"?>
<svg xmlns="http://www.w3.org/2000/svg" xmlns:xlink="http://www.w3.org/1999/xlink" width="39pt" height="45pt" viewBox="0 0 39 45" version="1.1">
<g id="surface1">
<path style=" stroke:none;fill-rule:nonzero;fill:#ec8625;fill-opacity:1;" d="M 31.042969 11.515625 C 31.042969 12.886719 29.925781 13.996094 28.542969 13.996094 C 27.164062 13.996094 26.042969 12.886719 26.042969 11.515625 C 26.042969 10.148438 27.164062 9.039062 28.542969 9.039062 C 29.925781 9.039062 31.042969 10.148438 31.042969 11.515625 Z M 31.042969 11.515625 "/>
<path style=" stroke:none;fill-rule:nonzero;fill:#ec8625;fill-opacity:1;" d="M 15.023438 11.515625 C 15.023438 12.886719 13.90625 13.996094 12.523438 13.996094 C 11.144531 13.996094 10.027344 12.886719 10.027344 11.515625 C 10.027344 10.148438 11.144531 9.039062 12.523438 9.039062 C 13.90625 9.039062 15.023438 10.148438 15.023438 11.515625 Z M 15.023438 11.515625 "/>
<path style=" stroke:none;fill-rule:nonzero;fill:#3e2c1f;fill-opacity:1;" d="M 37.03125 6.246094 C 37.007812 5.78125 36.621094 5.414062 36.148438 5.414062 L 28.667969 5.414062 C 26.78125 2.160156 23.285156 0.15625 19.5 0.15625 C 15.71875 0.15625 12.222656 2.160156 10.332031 5.414062 L 2.851562 5.414062 C 2.378906 5.414062 1.992188 5.78125 1.96875 6.246094 L 0.0625 43.925781 C 0.0546875 44.164062 0.140625 44.398438 0.308594 44.570312 C 0.476562 44.746094 0.707031 44.84375 0.949219 44.84375 L 38.054688 44.84375 C 38.296875 44.84375 38.527344 44.746094 38.695312 44.570312 C 38.859375 44.398438 38.949219 44.164062 38.9375 43.925781 Z M 28.335938 10.671875 C 28.335938 11.027344 28.121094 11.347656 27.789062 11.484375 C 27.457031 11.621094 27.074219 11.542969 26.824219 11.289062 C 26.570312 11.039062 26.496094 10.660156 26.636719 10.332031 C 26.777344 10.003906 27.101562 9.789062 27.460938 9.796875 C 27.945312 9.800781 28.335938 10.191406 28.335938 10.671875 Z M 19.5 1.910156 C 22.277344 1.910156 24.886719 3.210938 26.550781 5.414062 L 12.460938 5.414062 C 14.121094 3.214844 16.726562 1.914062 19.5 1.910156 Z M 11.550781 9.796875 C 11.910156 9.789062 12.234375 10 12.378906 10.328125 C 12.519531 10.65625 12.445312 11.035156 12.195312 11.289062 C 11.941406 11.542969 11.558594 11.621094 11.226562 11.484375 C 10.894531 11.347656 10.679688 11.027344 10.679688 10.671875 C 10.679688 10.191406 11.066406 9.804688 11.550781 9.796875 Z M 1.886719 43.082031 L 3.691406 7.167969 L 9.515625 7.167969 C 9.109375 8.292969 8.902344 9.476562 8.898438 10.671875 C 8.898438 12.121094 10.085938 13.296875 11.550781 13.296875 C 13.011719 13.296875 14.199219 12.121094 14.199219 10.671875 C 14.199219 9.21875 13.011719 8.042969 11.550781 8.042969 C 11.382812 8.042969 11.21875 8.0625 11.058594 8.09375 C 11.15625 7.777344 11.273438 7.46875 11.410156 7.167969 L 27.59375 7.167969 C 27.726562 7.46875 27.84375 7.777344 27.945312 8.09375 C 26.847656 7.890625 25.742188 8.386719 25.175781 9.339844 C 24.609375 10.289062 24.707031 11.492188 25.414062 12.34375 C 26.125 13.195312 27.296875 13.515625 28.347656 13.144531 C 29.394531 12.773438 30.097656 11.789062 30.101562 10.683594 C 30.105469 9.488281 29.902344 8.296875 29.496094 7.167969 L 35.324219 7.167969 L 37.125 43.09375 Z M 1.886719 43.082031 "/>
<path style=" stroke:none;fill-rule:nonzero;fill:#ec8625;fill-opacity:1;" d="M 25.679688 22.0625 L 13.316406 22.0625 C 12.824219 22.0625 12.425781 22.457031 12.425781 22.945312 C 12.425781 23.429688 12.824219 23.828125 13.316406 23.828125 L 25.679688 23.828125 C 26.171875 23.828125 26.570312 23.429688 26.570312 22.945312 C 26.570312 22.457031 26.171875 22.0625 25.679688 22.0625 Z M 25.679688 22.0625 "/>
<path style=" stroke:none;fill-rule:nonzero;fill:#ec8625;fill-opacity:1;" d="M 25.679688 25.5625 L 13.316406 25.5625 C 12.988281 25.546875 12.679688 25.710938 12.511719 25.988281 C 12.339844 26.265625 12.339844 26.613281 12.511719 26.894531 C 12.679688 27.171875 12.988281 27.335938 13.316406 27.316406 L 25.679688 27.316406 C 26.007812 27.335938 26.316406 27.171875 26.488281 26.894531 C 26.65625 26.613281 26.65625 26.265625 26.488281 25.988281 C 26.316406 25.710938 26.007812 25.546875 25.679688 25.5625 Z M 25.679688 25.5625 "/>
<path style=" stroke:none;fill-rule:nonzero;fill:#ec8625;fill-opacity:1;" d="M 25.679688 29.070312 L 13.316406 29.070312 C 12.824219 29.070312 12.425781 29.46875 12.425781 29.953125 C 12.425781 30.441406 12.824219 30.835938 13.316406 30.835938 L 25.679688 30.835938 C 26.171875 30.835938 26.570312 30.441406 26.570312 29.953125 C 26.570312 29.46875 26.171875 29.070312 25.679688 29.070312 Z M 25.679688 29.070312 "/>
</g>
</svg>
